{
  "licenseNumber": "123456789",
  "issuingCountry": "Belgium",
  "firstName": "John",
  "lastName": "Doe",
  "email": "John.Doe@email.com",
  "password": "password",
  "confirmPassword": "password"
}
